{"page":569,"totalPages":569,"totalResults":13635,"type":"FUTPlayerItemList","count":3,"items":[{"commonName":"","firstName":"Aidan","headshotImgUrl":"https:\/\/fifa15.content.easports.com\/fifa\/fltOnlineAssets\/B488919F-23B5-497F-9FC0-CACFB38863D0\/2016\/fut\/items\/images\/players\/html5\/120x120\/227180.png","lastName":"O'Kelly","league":{"abbrName":"ENG 4","id":61,"imgUrl":null,"name":"Football League 2"},"nation":{"imageUrls":{"small":"https:\/\/fifa15.content.easports.com\/fifa\/fltOnlineAssets\/B488919F-23B5-497F-9FC0-CACFB38863D0\/2016\/fut\/items\/images\/flags\/html5\/24x14\/14.png","medium":"https:\/\/fifa15.content.easports.com\/fifa\/fltOnlineAssets\/B488919F-23B5-497F-9FC0-CACFB38863D0\/2016\/fut\/items\/images\/flags\/html5\/35x22\/14.png","large":"https:\/\/fifa15.content.easports.com\/fifa\/fltOnlineAssets\/B488919F-23B5-497F-9FC0-CACFB38863D0\/2016\/fut\/items\/images\/flags\/html5\/45x28\/14.png"},"abbrName":"England","id":14,"imgUrl":null,"name":"England"},"club":{"imageUrls":{"dark":{"small":"https:\/\/fifa15.content.easports.com\/fifa\/fltOnlineAssets\/B488919F-23B5-497F-9FC0-CACFB38863D0\/2016\/fut\/items\/images\/clubbadges\/html5\/dark\/24x24\/l112254.png","medium":"https:\/\/fifa15.content.easports.com\/fifa\/fltOnlineAssets\/B488919F-23B5-497F-9FC0-CACFB38863D0\/2016\/fut\/items\/images\/clubbadges\/html5\/dark\/35x35\/l112254.png","large":"https:\/\/fifa15.content.easports.com\/fifa\/fltOnlineAssets\/B488919F-23B5-497F-9FC0-CACFB38863D0\/2016\/fut\/items\/images\/clubbadges\/html5\/dark\/45x45\/l112254.png"},"normal":{"small":"https:\/\/fifa15.content.easports.com\/fifa\/fltOnlineAssets\/B488919F-23B5-497F-9FC0-CACFB38863D0\/2016\/fut\/items\/images\/clubbadges\/html5\/normal\/24x24\/l112254.png","medium":"https:\/\/fifa15.content.easports.com\/fifa\/fltOnlineAssets\/B488919F-23B5-497F-9FC0-CACFB38863D0\/2016\/fut\/items\/images\/clubbadges\/html5\/normal\/35x35\/l112254.png","large":"https:\/\/fifa15.content.easports.com\/fifa\/fltOnlineAssets\/B488919F-23B5-497F-9FC0-CACFB38863D0\/2016\/fut\/items\/images\/clubbadges\/html5\/normal\/45x45\/l112254.png"}},"abbrName":"Newport","id":112254,"imgUrl":null,"name":"Newport County"},"headshot":{"largeImgUrl":"https:\/\/fifa15.content.easports.com\/fifa\/fltOnlineAssets\/B488919F-23B5-497F-9FC0-CACFB38863D0\/2016\/fut\/items\/images\/players\/html5\/120x120\/227180.png","medImgUrl":"https:\/\/fifa15.content.easports.com\/fifa\/fltOnlineAssets\/B488919F-23B5-497F-9FC0-CACFB38863D0\/2016\/fut\/items\/images\/players\/html5\/92x92\/227180.png","smallImgUrl":"https:\/\/fifa15.content.easports.com\/fifa\/fltOnlineAssets\/B488919F-23B5-497F-9FC0-CACFB38863D0\/2016\/fut\/items\/images\/players\/html5\/40x40\/227180.png"},"specialImages":{"largeTOTWImgUrl":null,"medTOTWImgUrl":null},"position":"RWB","playStyle":"Basic","playStyleId":null,"height":178,"weight":64,"birthdate":"1997-08-13","age":18,"acceleration":63,"aggression":28,"agility":71,"balance":78,"ballcontrol":32,"foot":"Right","skillMoves":2,"crossing":43,"curve":29,"dribbling":29,"finishing":19,"freekickaccuracy":26,"gkdiving":11,"gkhandling":15,"gkkicking":8,"gkpositioning":7,"gkreflexes":8,"headingaccuracy":39,"interceptions":41,"jumping":75,"longpassing":19,"longshots":20,"marking":43,"penalties":34,"positioning":39,"potential":60,"reactions":33,"shortpassing":37,"shotpower":20,"slidingtackle":47,"sprintspeed":66,"standingtackle":44,"stamina":55,"strength":34,"vision":27,"volleys":27,"weakFoot":2,"traits":null,"specialities":null,"atkWorkRate":"Medium","defWorkRate":"Medium","playerType":"standard","attributes":[{"name":"fut.attribute.PAC","value":65,"chemistryBonus":[0]},{"name":"fut.attribute.SHO","value":22,"chemistryBonus":[0]},{"name":"fut.attribute.PAS","value":33,"chemistryBonus":[0]},{"name":"fut.attribute.DRI","value":37,"chemistryBonus":[0]},{"name":"fut.attribute.DEF","value":43,"chemistryBonus":[0]},{"name":"fut.attribute.PHY","value":40,"chemistryBonus":[0]}],"name":"O'Kelly","quality":"bronze","color":"bronze","isGK":false,"positionFull":"Right Wing Back","isSpecialType":false,"contracts":null,"fitness":null,"rawAttributeChemistryBonus":null,"isLoan":null,"itemType":"player","discardValue":null,"id":"227180","modelName":"FUTPlayerItem","baseId":227180,"rating":44},{"commonName":"","firstName":"Danny","headshotImgUrl":"https:\/\/fifa15.content.easports.com\/fifa\/fltOnlineAssets\/B488919F-23B5-497F-9FC0-CACFB38863D0\/2016\/fut\/items\/images\/players\/html5\/120x120\/227244.png","lastName":"Clifton","league":{"abbrName":"ENG 4","id":61,"imgUrl":null,"name":"Football League 2"},"nation":{"imageUrls":{"small":"https:\/\/fifa15.content.easports.com\/fifa\/fltOnlineAssets\/B488919F-23B5-497F-9FC0-CACFB38863D0\/2016\/fut\/items\/images\/flags\/html5\/24x14\/14.png","medium":"https:\/\/fifa15.content.easports.com\/fifa\/fltOnlineAssets\/B488919F-23B5-497F-9FC0-CACFB38863D0\/2016\/fut\/items\/images\/flags\/html5\/35x22\/14.png","large":"https:\/\/fifa15.content.easports.com\/fifa\/fltOnlineAssets\/B488919F-23B5-497F-9FC0-CACFB38863D0\/2016\/fut\/items\/images\/flags\/html5\/45x28\/14.png"},"abbrName":"England","id":14,"imgUrl":null,"name":"England"},"club":{"imageUrls":{"dark":{"small":"https:\/\/fifa15.content.easports.com\/fifa\/fltOnlineAssets\/B488919F-23B5-497F-9FC0-CACFB38863D0\/2016\/fut\/items\/images\/clubbadges\/html5\/dark\/24x24\/l1930.png","medium":"https:\/\/fifa15.content.easports.com\/fifa\/fltOnlineAssets\/B488919F-23B5-497F-9FC0-CACFB38863D0\/2016\/fut\/items\/images\/clubbadges\/html5\/dark\/35x35\/l1930.png","large":"https:\/\/fifa15.content.easports.com\/fifa\/fltOnlineAssets\/B488919F-23B5-497F-9FC0-CACFB38863D0\/2016\/fut\/items\/images\/clubbadges\/html5\/dark\/45x45\/l1930.png"},"normal":{"small":"https:\/\/fifa15.content.easports.com\/fifa\/fltOnlineAssets\/B488919F-23B5-497F-9FC0-CACFB38863D0\/2016\/fut\/items\/images\/clubbadges\/html5\/normal\/24x24\/l1930.png","medium":"https:\/\/fifa15.content.easports.com\/fifa\/fltOnlineAssets\/B488919F-23B5-497F-9FC0-CACFB38863D0\/2016\/fut\/items\/images\/clubbadges\/html5\/normal\/35x35\/l1930.png","large":"https:\/\/fifa15.content.easports.com\/fifa\/fltOnlineAssets\/B488919F-23B5-497F-9FC0-CACFB38863D0\/2016\/fut\/items\/images\/clubbadges\/html5\/normal\/45x45\/l1930.png"}},"abbrName":"N'hampton","id":1930,"imgUrl":null,"name":"Northampton Town"},"headshot":{"largeImgUrl":"https:\/\/fifa15.content.easports.com\/fifa\/fltOnlineAssets\/B488919F-23B5-497F-9FC0-CACFB38863D0\/2016\/fut\/items\/images\/players\/html5\/120x120\/227244.png","medImgUrl":"https:\/\/fifa15.content.easports.com\/fifa\/fltOnlineAssets\/B488919F-23B5-497F-9FC0-CACFB38863D0\/2016\/fut\/items\/images\/players\/html5\/92x92\/227244.png","smallImgUrl":"https:\/\/fifa15.content.easports.com\/fifa\/fltOnlineAssets\/B488919F-23B5-497F-9FC0-CACFB38863D0\/2016\/fut\/items\/images\/players\/html5\/40x40\/227244.png"},"specialImages":{"largeTOTWImgUrl":null,"medTOTWImgUrl":null},"position":"CM","playStyle":"Basic","playStyleId":null,"height":178,"weight":66,"birthdate":"1996-11-08","age":18,"acceleration":60,"aggression":53,"agility":63,"balance":73,"ballcontrol":43,"foot":"Right","skillMoves":2,"crossing":49,"curve":33,"dribbling":46,"finishing":28,"freekickaccuracy":33,"gkdiving":7,"gkhandling":12,"gkkicking":10,"gkpositioning":16,"gkreflexes":7,"headingaccuracy":48,"interceptions":40,"jumping":63,"longpassing":49,"longshots":26,"marking":44,"penalties":44,"positioning":27,"potential":60,"reactions":36,"shortpassing":55,"shotpower":45,"slidingtackle":46,"sprintspeed":68,"standingtackle":43,"stamina":43,"strength":42,"vision":46,"volleys":32,"weakFoot":3,"traits":null,"specialities":null,"atkWorkRate":"Medium","defWorkRate":"Medium","playerType":"standard","attributes":[{"name":"fut.attribute.PAC","value":64,"chemistryBonus":[0]},{"name":"fut.attribute.SHO","value":32,"chemistryBonus":[0]},{"name":"fut.attribute.PAS","value":49,"chemistryBonus":[0]},{"name":"fut.attribute.DRI","value":48,"chemistryBonus":[0]},{"name":"fut.attribute.DEF","value":44,"chemistryBonus":[0]},{"name":"fut.attribute.PHY","value":46,"chemistryBonus":[0]}],"name":"Clifton","quality":"bronze","color":"bronze","isGK":false,"positionFull":"Centre Midfielder","isSpecialType":false,"contracts":null,"fitness":null,"rawAttributeChemistryBonus":null,"isLoan":null,"itemType":"player","discardValue":null,"id":"227244","modelName":"FUTPlayerItem","baseId":227244,"rating":44},{"commonName":"","firstName":"Corey","headshotImgUrl":"https:\/\/fifa15.content.easports.com\/fifa\/fltOnlineAssets\/B488919F-23B5-497F-9FC0-CACFB38863D0\/2016\/fut\/items\/images\/players\/html5\/120x120\/229852.png","lastName":"Shephard","league":{"abbrName":"ENG 4","id":61,"imgUrl":null,"name":"Football League 2"},"nation":{"imageUrls":{"small":"https:\/\/fifa15.content.easports.com\/fifa\/fltOnlineAssets\/B488919F-23B5-497F-9FC0-CACFB38863D0\/2016\/fut\/items\/images\/flags\/html5\/24x14\/50.png","medium":"https:\/\/fifa15.content.easports.com\/fifa\/fltOnlineAssets\/B488919F-23B5-497F-9FC0-CACFB38863D0\/2016\/fut\/items\/images\/flags\/html5\/35x22\/50.png","large":"https:\/\/fifa15.content.easports.com\/fifa\/fltOnlineAssets\/B488919F-23B5-497F-9FC0-CACFB38863D0\/2016\/fut\/items\/images\/flags\/html5\/45x28\/50.png"},"abbrName":"Wales","id":50,"imgUrl":null,"name":"Wales"},"club":{"imageUrls":{"dark":{"small":"https:\/\/fifa15.content.easports.com\/fifa\/fltOnlineAssets\/B488919F-23B5-497F-9FC0-CACFB38863D0\/2016\/fut\/items\/images\/clubbadges\/html5\/dark\/24x24\/l112254.png","medium":"https:\/\/fifa15.content.easports.com\/fifa\/fltOnlineAssets\/B488919F-23B5-497F-9FC0-CACFB38863D0\/2016\/fut\/items\/images\/clubbadges\/html5\/dark\/35x35\/l112254.png","large":"https:\/\/fifa15.content.easports.com\/fifa\/fltOnlineAssets\/B488919F-23B5-497F-9FC0-CACFB38863D0\/2016\/fut\/items\/images\/clubbadges\/html5\/dark\/45x45\/l112254.png"},"normal":{"small":"https:\/\/fifa15.content.easports.com\/fifa\/fltOnlineAssets\/B488919F-23B5-497F-9FC0-CACFB38863D0\/2016\/fut\/items\/images\/clubbadges\/html5\/normal\/24x24\/l112254.png","medium":"https:\/\/fifa15.content.easports.com\/fifa\/fltOnlineAssets\/B488919F-23B5-497F-9FC0-CACFB38863D0\/2016\/fut\/items\/images\/clubbadges\/html5\/normal\/35x35\/l112254.png","large":"https:\/\/fifa15.content.easports.com\/fifa\/fltOnlineAssets\/B488919F-23B5-497F-9FC0-CACFB38863D0\/2016\/fut\/items\/images\/clubbadges\/html5\/normal\/45x45\/l112254.png"}},"abbrName":"Newport","id":112254,"imgUrl":null,"name":"Newport County"},"headshot":{"largeImgUrl":"https:\/\/fifa15.content.easports.com\/fifa\/fltOnlineAssets\/B488919F-23B5-497F-9FC0-CACFB38863D0\/2016\/fut\/items\/images\/players\/html5\/120x120\/229852.png","medImgUrl":"https:\/\/fifa15.content.easports.com\/fifa\/fltOnlineAssets\/B488919F-23B5-497F-9FC0-CACFB38863D0\/2016\/fut\/items\/images\/players\/html5\/92x92\/229852.png","smallImgUrl":"https:\/\/fifa15.content.easports.com\/fifa\/fltOnlineAssets\/B488919F-23B5-497F-9FC0-CACFB38863D0\/2016\/fut\/items\/images\/players\/html5\/40x40\/229852.png"},"specialImages":{"largeTOTWImgUrl":null,"medTOTWImgUrl":null},"position":"CM","playStyle":"Basic","playStyleId":null,"height":173,"weight":69,"birthdate":"1997-12-28","age":17,"acceleration":68,"aggression":40,"agility":77,"balance":75,"ballcontrol":43,"foot":"Right","skillMoves":2,"crossing":32,"curve":40,"dribbling":45,"finishing":29,"freekickaccuracy":37,"gkdiving":9,"gkhandling":10,"gkkicking":10,"gkpositioning":10,"gkreflexes":6,"headingaccuracy":35,"interceptions":21,"jumping":59,"longpassing":48,"longshots":34,"marking":29,"penalties":36,"positioning":43,"potential":56,"reactions":43,"shortpassing":52,"shotpower":40,"slidingtackle":37,"sprintspeed":70,"standingtackle":39,"stamina":48,"strength":47,"vision":42,"volleys":34,"weakFoot":3,"traits":null,"specialities":null,"atkWorkRate":"Medium","defWorkRate":"High","playerType":"standard","attributes":[{"name":"fut.attribute.PAC","value":69,"chemistryBonus":[0]},{"name":"fut.attribute.SHO","value":34,"chemistryBonus":[0]},{"name":"fut.attribute.PAS","value":44,"chemistryBonus":[0]},{"name":"fut.attribute.DRI","value":49,"chemistryBonus":[0]},{"name":"fut.attribute.DEF","value":32,"chemistryBonus":[0]},{"name":"fut.attribute.PHY","value":46,"chemistryBonus":[0]}],"name":"Shephard","quality":"bronze","color":"bronze","isGK":false,"positionFull":"Centre Midfielder","isSpecialType":false,"contracts":null,"fitness":null,"rawAttributeChemistryBonus":null,"isLoan":null,"itemType":"player","discardValue":null,"id":"229852","modelName":"FUTPlayerItem","baseId":229852,"rating":44}]}