{"page":731,"totalPages":731,"totalResults":17521,"type":"FUTPlayerItemList","count":1,"items":[{"commonName":"","firstName":"Paul","headshotImgUrl":"https:\/\/fifa15.content.easports.com\/fifa\/fltOnlineAssets\/8D941B48-51BB-4B87-960A-06A61A62EBC0\/2015\/fut\/items\/images\/players\/html5\/130x130\/201197.png","lastName":"Tisdale","league":{"abbrName":"ENG 4","id":61,"imgUrl":"https:\/\/fifa15.content.easports.com\/fifa\/fltOnlineAssets\/8D941B48-51BB-4B87-960A-06A61A62EBC0\/2015\/fut\/items\/images\/leagueLogos_sm\/web\/l61.png","name":"Football League 2"},"nation":{"abbrName":"Malta","id":32,"imgUrl":"https:\/\/fifa15.content.easports.com\/fifa\/fltOnlineAssets\/8D941B48-51BB-4B87-960A-06A61A62EBC0\/2015\/fut\/items\/images\/flags\/html5\/51x32\/32.png","name":"Malta","smallImgUrl":"https:\/\/fifa15.content.easports.com\/fifa\/fltOnlineAssets\/8D941B48-51BB-4B87-960A-06A61A62EBC0\/2015\/fut\/items\/images\/flags\/html5\/37x23\/32.png"},"club":{"imageUrls":{"dark":{"small":"https:\/\/fifa15.content.easports.com\/fifa\/fltOnlineAssets\/8D941B48-51BB-4B87-960A-06A61A62EBC0\/2015\/fut\/items\/images\/clubbadges\/html5\/dark\/31x31\/l143.png","large":"https:\/\/fifa15.content.easports.com\/fifa\/fltOnlineAssets\/8D941B48-51BB-4B87-960A-06A61A62EBC0\/2015\/fut\/items\/images\/clubbadges\/html5\/dark\/44x44\/l143.png"},"light":{"small":"https:\/\/fifa15.content.easports.com\/fifa\/fltOnlineAssets\/8D941B48-51BB-4B87-960A-06A61A62EBC0\/2015\/fut\/items\/images\/clubbadges\/html5\/normal\/31x31\/l143.png","large":"https:\/\/fifa15.content.easports.com\/fifa\/fltOnlineAssets\/8D941B48-51BB-4B87-960A-06A61A62EBC0\/2015\/fut\/items\/images\/clubbadges\/html5\/normal\/44x44\/l143.png"}},"imgUrl":"https:\/\/fifa15.content.easports.com\/fifa\/fltOnlineAssets\/8D941B48-51BB-4B87-960A-06A61A62EBC0\/2015\/fut\/items\/images\/clubbadges\/html5\/normal\/44x44\/l143.png","abbrName":"Exeter","id":143,"name":"Exeter City"},"headshot":{"largeImgUrl":"https:\/\/fifa15.content.easports.com\/fifa\/fltOnlineAssets\/8D941B48-51BB-4B87-960A-06A61A62EBC0\/2015\/fut\/items\/images\/players\/html5\/130x130\/201197.png","medImgUrl":"https:\/\/fifa15.content.easports.com\/fifa\/fltOnlineAssets\/8D941B48-51BB-4B87-960A-06A61A62EBC0\/2015\/fut\/items\/images\/players\/html5\/92x92\/201197.png","smallImgUrl":"https:\/\/fifa15.content.easports.com\/fifa\/fltOnlineAssets\/8D941B48-51BB-4B87-960A-06A61A62EBC0\/2015\/fut\/items\/images\/players\/html5\/40x40\/201197.png"},"position":"CM","playStyle":"basic","height":175,"weight":72,"birthdate":"1973-01-14","age":42,"acceleration":35,"aggression":32,"agility":37,"balance":51,"ballcontrol":44,"foot":"Right","skillMoves":2,"crossing":39,"curve":41,"dribbling":46,"finishing":36,"freekickaccuracy":53,"gkdiving":5,"gkhandling":6,"gkkicking":14,"gkpositioning":8,"gkreflexes":13,"headingaccuracy":29,"interceptions":35,"jumping":39,"longpassing":41,"longshots":38,"marking":27,"penalties":55,"positioning":43,"potential":40,"reactions":41,"shortpassing":43,"shotpower":32,"slidingtackle":29,"sprintspeed":41,"standingtackle":34,"stamina":25,"strength":37,"vision":41,"volleys":27,"weakFoot":3,"traits":["Injury Prone","Playmaker"],"specialities":null,"atkWorkRate":"Medium","defWorkRate":"Medium","playerType":"standard","attributes":[{"name":"fut.attribute.PAC","value":38},{"name":"fut.attribute.SHO","value":36},{"name":"fut.attribute.PAS","value":42},{"name":"fut.attribute.DRI","value":44},{"name":"fut.attribute.DEF","value":31},{"name":"fut.attribute.PHY","value":33}],"name":"Tisdale","quality":"bronze","color":"bronze","isGK":false,"positionFull":"CM","isSpecialType":false,"itemType":"player","id":"201197","modelName":"FUTPlayerItem","baseId":201197,"rating":40}]}